{
    "key": "group_573e1c186e0c1",
    "title": "Sidebar Menu",
    "fields": [
        {
            "key": "field_573e2e46a3631",
            "label": "Sidebar Menu Title",
            "name": "sidebar_menu_title",
            "type": "text",
            "instructions": "Change the sidebar menu title if desired. Defaults to \"Quick Links.\"",
            "required": 0,
            "conditional_logic": 0,
            "wrapper": {
                "width": "",
                "class": "",
                "id": ""
            },
            "default_value": "",
            "maxlength": "",
            "placeholder": "",
            "prepend": "",
            "append": "",
            "readonly": 0,
            "disabled": 0
        },
        {
            "key": "field_573e1c24adbe2",
            "label": "Sidebar Links Before Page List",
            "name": "sidebar_links_before",
            "type": "repeater",
            "instructions": "These links will appear at the top of the dynamically generated sidebar page list.",
            "required": 0,
            "conditional_logic": 0,
            "wrapper": {
                "width": "",
                "class": "",
                "id": ""
            },
            "min": 0,
            "max": 0,
            "layout": "block",
            "button_label": "Add Link",
            "collapsed": "field_573e1c8fadbe3",
            "sub_fields": [
                {
                    "key": "field_573e1c8fadbe3",
                    "label": "Link Text",
                    "name": "sidebar_before_link_text",
                    "type": "text",
                    "instructions": "",
                    "required": 0,
                    "conditional_logic": 0,
                    "wrapper": {
                        "width": "",
                        "class": "",
                        "id": ""
                    },
                    "default_value": "",
                    "maxlength": "",
                    "placeholder": "",
                    "prepend": "",
                    "append": "",
                    "readonly": 0,
                    "disabled": 0
                },
                {
                    "key": "field_573e1df3adbe6",
                    "label": "Link URL",
                    "name": "sidebar_before_link_url",
                    "type": "link",
                    "instructions": "",
                    "required": 0,
                    "conditional_logic": 0,
                    "wrapper": {
                        "width": "",
                        "class": "",
                        "id": ""
                    },
                    "return_format": "array"
                }
            ]
        },
        {
            "key": "field_573e295c2ca6a",
            "label": "Sidebar Links After Page List",
            "name": "sidebar_links_after",
            "type": "repeater",
            "instructions": "These links will appear at the top of the dynamically generated sidebar page list.",
            "required": 0,
            "conditional_logic": 0,
            "wrapper": {
                "width": "",
                "class": "",
                "id": ""
            },
            "min": 0,
            "max": 0,
            "layout": "block",
            "button_label": "Add Link",
            "collapsed": "",
            "sub_fields": [
                {
                    "key": "field_573e295c2ca6b",
                    "label": "Link Text",
                    "name": "sidebar_after_link_text",
                    "type": "text",
                    "instructions": "",
                    "required": 0,
                    "conditional_logic": 0,
                    "wrapper": {
                        "width": "",
                        "class": "",
                        "id": ""
                    },
                    "default_value": "",
                    "maxlength": "",
                    "placeholder": "",
                    "prepend": "",
                    "append": "",
                    "readonly": 0,
                    "disabled": 0
                },
                {
                    "key": "field_573e295c2ca6e",
                    "label": "Link URL",
                    "name": "sidebar_after_link_url",
                    "type": "link",
                    "instructions": "",
                    "required": 0,
                    "conditional_logic": 0,
                    "wrapper": {
                        "width": "",
                        "class": "",
                        "id": ""
                    },
                    "return_format": "array"
                }
            ]
        }
    ],
    "location": [
        [
            {
                "param": "page_template",
                "operator": "==",
                "value": "default"
            }
        ]
    ],
    "menu_order": 2,
    "position": "side",
    "style": "default",
    "label_placement": "top",
    "instruction_placement": "label",
    "hide_on_screen": "",
    "active": 1,
    "description": "",
    "modified": 1504835756
}